  2.4000000e+001  5.8400000e+002  6.1200000e+002
  2.0000000e+001  6.9600000e+002  7.2400000e+002
  2.0000000e+001  8.8400000e+002  9.1200000e+002
  2.0000000e+001  8.3000000e+002  8.6000000e+002
  2.2000000e+001  5.5400000e+002  5.8000000e+002
  2.0000000e+001  5.6200000e+002  5.9200000e+002
  3.2000000e+001  9.6800000e+002  9.9600000e+002
  2.0000000e+001  7.5600000e+002  7.8800000e+002
  1.6000000e+001  1.2360000e+003  1.2820000e+003
  2.4000000e+001  4.9200000e+002  5.1800000e+002
  2.0000000e+001  9.3600000e+002  9.6000000e+002
  2.0000000e+001  9.4800000e+002  9.7600000e+002
  2.2000000e+001  6.2200000e+002  6.4600000e+002
  2.0000000e+001  6.3800000e+002  6.6600000e+002
  2.4000000e+001  8.0400000e+002  8.3200000e+002
